k-cone analysis protocol
…
So there is no correlation on a global level. However, looking at the changes that are significant in EDAs and gene expression we find some cases were gene expression influences the enzymatic activity.

info[info$significant, ]

## Source: local data frame [66 x 11]
## Groups: r_idx [12]
## 
##    r_idx   ENZYME SYMBOL         ENSEMBL ENTREZID   met_lfc   met_pval
##    <int>    <chr>  <chr>           <chr>    <chr>     <dbl>      <dbl>
## 1     11 2.7.1.11   PFKM ENSG00000152556     5213 3.0046450 0.04228564
## 2     11 2.7.1.11   PFKP ENSG00000067057     5214 3.0046450 0.04228564
## 3     13  5.3.1.9    GPI ENSG00000105220     2821 1.6901302 0.04228564
## 4     13  5.3.1.9    GPI ENSG00000282019     2821 1.6901302 0.04228564
## 5     13  5.3.1.9    GPI ENSG00000105220     2821 1.6901302 0.04228564
## 6     13  5.3.1.9    GPI ENSG00000282019     2821 1.6901302 0.04228564
## 7     16  2.7.2.3   PGK1 ENSG00000102144     5230 0.5589038 0.04228564
## 8     16  2.7.2.3   PGK2 ENSG00000170950     5232 0.5589038 0.04228564
## 9     16  2.7.2.3   PGK1 ENSG00000102144     5230 0.5589038 0.04228564
## 10    16  2.7.2.3   PGK2 ENSG00000170950     5232 0.5589038 0.04228564
## # ... with 56 more rows, and 4 more variables: pathway <fctr>,
## #   ge_lfc <dbl>, ge_pval <dbl>, significant <lgl>
